WARNING - 2023-07-29 04:43:58 --> [DEPRECATED] Creation of dynamic property App\Controllers\Home::$db is deprecated in APPPATH\Controllers\Home.php on line 19.
 1 SYSTEMPATH\CodeIgniter.php(906): App\Controllers\Home->__construct()
 2 SYSTEMPATH\CodeIgniter.php(490): CodeIgniter\CodeIgniter->createController()
 3 SYSTEMPATH\CodeIgniter.php(368): CodeIgniter\CodeIgniter->handleRequest(null, Object(Config\Cache), false)
 4 FCPATH\index.php(67): CodeIgniter\CodeIgniter->run()
 5 SYSTEMPATH\Commands\Server\rewrite.php(47): require_once('C:\\xampp\\htdocs\\lansia\\public\\index.php')
CRITICAL - 2023-07-29 04:50:10 --> Invalid file: "user/tambahData.php"
in SYSTEMPATH\Exceptions\FrameworkException.php on line 33.
 1 SYSTEMPATH\View\View.php(201): CodeIgniter\Exceptions\FrameworkException::forInvalidFile('user/tambahData.php')
 2 SYSTEMPATH\Common.php(1184): CodeIgniter\View\View->render('user/tambahData', [], true)
 3 APPPATH\Controllers\User\TambahData.php(25): view('user/tambahData')
 4 SYSTEMPATH\CodeIgniter.php(934): App\Controllers\User\TambahData->index()
 5 SYSTEMPATH\CodeIgniter.php(499): CodeIgniter\CodeIgniter->runController(Object(App\Controllers\User\TambahData))
 6 SYSTEMPATH\CodeIgniter.php(368): CodeIgniter\CodeIgniter->handleRequest(null, Object(Config\Cache), false)
 7 FCPATH\index.php(67): CodeIgniter\CodeIgniter->run()
 8 SYSTEMPATH\Commands\Server\rewrite.php(47): require_once('C:\\xampp\\htdocs\\lansia\\public\\index.php')
CRITICAL - 2023-07-29 04:50:26 --> Invalid file: "user/tambahData.php"
in SYSTEMPATH\Exceptions\FrameworkException.php on line 33.
 1 SYSTEMPATH\View\View.php(201): CodeIgniter\Exceptions\FrameworkException::forInvalidFile('user/tambahData.php')
 2 SYSTEMPATH\Common.php(1184): CodeIgniter\View\View->render('user/tambahData', [], true)
 3 APPPATH\Controllers\User\TambahData.php(25): view('user/tambahData')
 4 SYSTEMPATH\CodeIgniter.php(934): App\Controllers\User\TambahData->index()
 5 SYSTEMPATH\CodeIgniter.php(499): CodeIgniter\CodeIgniter->runController(Object(App\Controllers\User\TambahData))
 6 SYSTEMPATH\CodeIgniter.php(368): CodeIgniter\CodeIgniter->handleRequest(null, Object(Config\Cache), false)
 7 FCPATH\index.php(67): CodeIgniter\CodeIgniter->run()
 8 SYSTEMPATH\Commands\Server\rewrite.php(47): require_once('C:\\xampp\\htdocs\\lansia\\public\\index.php')
CRITICAL - 2023-07-29 04:50:30 --> Invalid file: "user/tambahData.php"
in SYSTEMPATH\Exceptions\FrameworkException.php on line 33.
 1 SYSTEMPATH\View\View.php(201): CodeIgniter\Exceptions\FrameworkException::forInvalidFile('user/tambahData.php')
 2 SYSTEMPATH\Common.php(1184): CodeIgniter\View\View->render('user/tambahData', [], true)
 3 APPPATH\Controllers\User\TambahData.php(25): view('user/tambahData')
 4 SYSTEMPATH\CodeIgniter.php(934): App\Controllers\User\TambahData->index()
 5 SYSTEMPATH\CodeIgniter.php(499): CodeIgniter\CodeIgniter->runController(Object(App\Controllers\User\TambahData))
 6 SYSTEMPATH\CodeIgniter.php(368): CodeIgniter\CodeIgniter->handleRequest(null, Object(Config\Cache), false)
 7 FCPATH\index.php(67): CodeIgniter\CodeIgniter->run()
 8 SYSTEMPATH\Commands\Server\rewrite.php(47): require_once('C:\\xampp\\htdocs\\lansia\\public\\index.php')
CRITICAL - 2023-07-29 04:51:10 --> Invalid file: "user/tambahData.php"
in SYSTEMPATH\Exceptions\FrameworkException.php on line 33.
 1 SYSTEMPATH\View\View.php(201): CodeIgniter\Exceptions\FrameworkException::forInvalidFile('user/tambahData.php')
 2 SYSTEMPATH\Common.php(1184): CodeIgniter\View\View->render('user/tambahData', [], true)
 3 APPPATH\Controllers\User\TambahData.php(26): view('user/tambahData')
 4 SYSTEMPATH\CodeIgniter.php(934): App\Controllers\User\TambahData->index()
 5 SYSTEMPATH\CodeIgniter.php(499): CodeIgniter\CodeIgniter->runController(Object(App\Controllers\User\TambahData))
 6 SYSTEMPATH\CodeIgniter.php(368): CodeIgniter\CodeIgniter->handleRequest(null, Object(Config\Cache), false)
 7 FCPATH\index.php(67): CodeIgniter\CodeIgniter->run()
 8 SYSTEMPATH\Commands\Server\rewrite.php(47): require_once('C:\\xampp\\htdocs\\lansia\\public\\index.php')
